%YAML 1.1
%TAG !u! tag:unity3d.com,2011:
--- !u!1045 &1
EditorBuildSettings:
  m_ObjectHideFlags: 0
  serializedVersion: 2
  m_Scenes: []
  m_configObjects:
    com.unity.xr.openxr.settings4: {fileID: 11400000, guid: 352de157b2461654c8f7b2b2de86e420, type: 2}
